RV64I/vcs.log

Warning-[LNX_OS_VERUN] Unsupported Linux version
  Linux version 'NAME=Ubuntu VERSION=18.04.6' is not supported on 'LTS' 
  officially, assuming linux compatibility by default. Set VCS_ARCH_OVERRIDE 
  to linux or suse32 to override.
  Please refer to release notes for information on supported platforms.
  The error message report included the following additional information: 
  Bionic Beaver ID=ubuntu ID_LIKE=debian PRETTY_NAME=Ubuntu 18.04.6 LTS 
  VERSION_ID=18.04 HOME_URL=https://www.ubuntu.com/ 
  SUPPORT_URL=https://help.ubuntu.com/ 
  BUG_REPORT_URL=https://bugs.launchpad.net/ubuntu/ 
  PRIVACY_POLICY_URL=https://www.ubuntu.com/legal/terms-and-policies/privacy-policy
  VERSION_CODENAME=bionic UBUNTU_CODENAME=bionic x86_64 

Command: vcs top_tb.sv -full64 -R -debug_access+all +v2k -l vcs.log -sverilog +PROG=prog5 \

                         Chronologic VCS (TM)
       Version U-2023.03-SP2_Full64 -- Sat Dec 21 15:50:11 2024

                    Copyright (c) 1991 - 2023 Synopsys, Inc.
   This software and the associated documentation are proprietary to Synopsys,
 Inc. This software may only be used in accordance with the terms and conditions
 of a written license agreement with Synopsys, Inc. All other use, reproduction,
   or distribution of this software is strictly prohibited.  Licensed Products
     communicate with Synopsys servers for the purpose of providing software
    updates, detecting software piracy and verifying that customers are using
    Licensed Products in conformity with the applicable License Key for such
  Licensed Products. Synopsys will use information gathered in connection with
    this process to deliver software updates and pursue software pirates and
                                   infringers.

 Inclusivity & Diversity - Visit SolvNetPlus to read the "Synopsys Statement on
            Inclusivity and Diversity" (Refer to article 000036315 at
                        https://solvnetplus.synopsys.com)

Parsing design file 'top_tb.sv'
Parsing included file './Top.v'.
Parsing included file './src/SRAM.v'.
Back to file './Top.v'.
Parsing included file './src/Reg_File.v'.
Back to file './Top.v'.
Parsing included file './src/ALU.v'.
Back to file './Top.v'.
Parsing included file './src/Decoder.v'.
Back to file './Top.v'.
Parsing included file './src/Imm_Ext.v'.
Back to file './Top.v'.
Parsing included file './src/JB_Unit.v'.
Back to file './Top.v'.
Parsing included file './src/Reg_PC.v'.
Back to file './Top.v'.
Parsing included file './src/LD_Filter.v'.
Back to file './Top.v'.
Parsing included file './src/Controller.v'.
Back to file './Top.v'.
Parsing included file './src/Reg_D.v'.
Back to file './Top.v'.
Parsing included file './src/Reg_E.v'.
Back to file './Top.v'.
Parsing included file './src/Reg_M.v'.
Back to file './Top.v'.
Parsing included file './src/Reg_W.v'.
Back to file './Top.v'.
Parsing included file './src/Data_mem.v'.
Back to file './Top.v'.
Parsing included file './src/dcache.v'.
Back to file './Top.v'.
Back to file 'top_tb.sv'.
Top Level Modules:
       top_tb
TimeScale is 1 ns / 10 ps
Starting vcs inline pass...

2 modules and 0 UDP read.
recompiling module Top
	However, due to incremental compilation, only 1 module needs to be compiled. 
rm -f _cuarc*.so _csrc*.so pre_vcsobj_*.so share_vcsobj_*.so
if [ -x ../simv ]; then chmod a-x ../simv; fi
g++  -o ../simv   -no-pie    -rdynamic  -Wl,-rpath='$ORIGIN'/simv.daidir -Wl,-rpath=./simv.daidir \
-Wl,-rpath=/opt/CIC/Synopsys/vcs/cur/linux64/lib -L/opt/CIC/Synopsys/vcs/cur/linux64/lib \
-Wl,-rpath-link=./ -Wl,--no-as-needed   objs/amcQw_d.o   _8173_archive_1.so _prev_archive_1.so \
SIM_l.o       rmapats_mop.o rmapats.o rmar.o rmar_nd.o  rmar_llvm_0_1.o rmar_llvm_0_0.o \
-lnuma -lvirsim -lerrorinf -lsnpsmalloc -lvfs    -lvcsnew -lsimprofile -luclinative \
/opt/CIC/Synopsys/vcs/cur/linux64/lib/vcs_tls.o   -Wl,-whole-archive  -lvcsucli  \
-Wl,-no-whole-archive        _vcs_pli_stub_.o   /opt/CIC/Synopsys/vcs/cur/linux64/lib/vcs_save_restore_new.o \
/opt/CIC/Synopsys/verdi/2023.03-sp2/share/PLI/VCS/LINUX64/pli.a -ldl  -lc -lm -lpthread \
-ldl 
../simv up to date
Command: /homes/nfs/caslab_bs/Desktop/Hsiang/systemC/RV64I/./simv +v2k -a vcs.log +PROG=prog5
Chronologic VCS simulator copyright 1991-2023
Contains Synopsys proprietary information.
Compiler version U-2023.03-SP2_Full64; Runtime version U-2023.03-SP2_Full64;  Dec 21 15:50 2024
*Verdi* Loading libsscore_vcs202303.so
FSDB Dumper for VCS, Release Verdi_U-2023.03-SP2, Linux x86_64/64bit, 08/28/2023
(C) 1996 - 2023 by Synopsys, Inc.
*Verdi* FSDB WARNING: The FSDB file already exists. Overwriting the FSDB file may crash the programs that are using this file.
*Verdi* : Create FSDB file 'top.fsdb'
*Verdi* : Begin traversing the scope (top_tb.top), layer (0).
*Verdi* : Enable +struct and +mda dumping.
*Verdi* : End of traversing.

Done

d$m1['h0000] = 00000000ffffffee dirty1 = 1, d$m2['h0000] = 00000000ffffffe3 dirty2 = 1, M['h9000] = 00000000, pass
d$m1['h0001] = 00000000ffffffee dirty1 = 1, d$m2['h0001] = 00000000ffffffe3 dirty2 = 1, M['h9004] = 00000001, pass
d$m1['h0002] = 00000000ffffffe8 dirty1 = 1, d$m2['h0002] = 00000000ffffffee dirty2 = 1, M['h9008] = 00000001, pass
d$m1['h0003] = 00000000ffffffe9 dirty1 = 1, d$m2['h0003] = 00000000ffffffef dirty2 = 1, M['h900c] = 00000003, pass
d$m1['h0004] = 00000000ffffffee dirty1 = 1, d$m2['h0004] = 00000000fffffff0 dirty2 = 1, M['h9010] = 00000003, pass
d$m1['h0005] = 00000000ffffffee dirty1 = 1, d$m2['h0005] = 00000000fffffffe dirty2 = 1, M['h9014] = 00000006, pass
d$m1['h0006] = 0000000000000000 dirty1 = 1, d$m2['h0006] = 00000000ffffffee dirty2 = 1, M['h9018] = 00000008, pass
d$m1['h0007] = 0000000000000000 dirty1 = 1, d$m2['h0007] = 00000000ffffffef dirty2 = 1, M['h901c] = 0000000a, pass
d$m1['h0008] = 0000000000000000 dirty1 = 1, d$m2['h0008] = 00000000fffffff0 dirty2 = 1, M['h9020] = 0000000a, pass
d$m1['h0009] = 0000000000000003 dirty1 = 1, d$m2['h0009] = 00000000fffffffe dirty2 = 1, M['h9024] = 0000000b, pass
d$m1['h000a] = 0000000000000009 dirty1 = 1, d$m2['h000a] = 0000000000000000 dirty2 = 1, M['h9028] = 0000000c, pass
d$m1['h000b] = 000000000000000f dirty1 = 1, d$m2['h000b] = 0000000000000000 dirty2 = 1, M['h902c] = 0000000f, pass
d$m1['h000c] = 0000000000000013 dirty1 = 1, d$m2['h000c] = 0000000000000000 dirty2 = 1, M['h9030] = 00000010, pass
d$m1['h000d] = 0000000000000016 dirty1 = 1, d$m2['h000d] = 0000000000000003 dirty2 = 1, M['h9034] = 00000012, pass
d$m1['h000e] = 0000000000000017 dirty1 = 1, d$m2['h000e] = 0000000000000009 dirty2 = 1, M['h9038] = 00000012, pass
d$m1['h000f] = 0000000000000017 dirty1 = 1, d$m2['h000f] = 000000000000000f dirty2 = 1, M['h903c] = 00000017, pass
d$m1['h0010] = 0000000000000013 dirty1 = 1, d$m2['h0010] = 0000000000000023 dirty2 = 1, M['h9040] = 00000017, pass
d$m1['h0011] = 0000000000000016 dirty1 = 1, d$m2['h0011] = 000000000000002e dirty2 = 1, M['h9044] = 00000017, pass
d$m1['h0012] = 0000000000000017 dirty1 = 1, d$m2['h0012] = 000000000000017c dirty2 = 1, M['h9048] = 00000018, pass
d$m1['h0013] = 0000000200000094 dirty1 = 0, d$m2['h0013] = 0000000000000017 dirty2 = 1, M['h904c] = 0000001b, pass
d$m1['h0014] = 0000001d00000002 dirty1 = 0, d$m2['h0014] = 0000000000000023 dirty2 = 1, M['h9050] = 0000001e, pass
d$m1['h0015] = xxxxxxxx0000002e dirty1 = 0, d$m2['h0015] = 00000000ffffffcf dirty2 = 1, M['h9054] = 00000025, pass
d$m1['h0016] = 00000000ffffffd2 dirty1 = 1, d$m2['h0016] = 0000000000009000 dirty2 = 0, M['h9058] = 00000025, pass
d$m1['h0017] = 00000000ffffffd2 dirty1 = 1, d$m2['h0017] = 0000000000000000 dirty2 = 0, M['h905c] = 00000026, pass
d$m1['h0018] = 00000000ffffffd4 dirty1 = 1, d$m2['h0018] = 0000000000000000 dirty2 = 0, M['h9060] = 00000027, pass
d$m1['h0019] = 0000000c00000000 dirty1 = 0, d$m2['h0019] = 00000000ffffffd5 dirty2 = 1, M['h9064] = 00000028, pass
d$m1['h001a] = 00000000ffffffd6 dirty1 = 1, d$m2['h001a] = 000000000000000c dirty2 = 0, M['h9068] = 00000028, pass
d$m1['h001b] = 00000000ffffffdb dirty1 = 1, d$m2['h001b] = xxxxxxxx00000000 dirty2 = 0, M['h906c] = 00000029, pass
d$m1['h001c] = 00000000ffffffd4 dirty1 = 1, d$m2['h001c] = 00000000ffffffe3 dirty2 = 1, M['h9070] = 0000002b, pass
d$m1['h001d] = 00000000ffffffd5 dirty1 = 1, d$m2['h001d] = 00000000ffffffe3 dirty2 = 1, M['h9074] = 0000002d, pass
d$m1['h001e] = 00000000ffffffd6 dirty1 = 1, d$m2['h001e] = 00000000ffffffe8 dirty2 = 1, M['h9078] = 0000002d, pass
d$m1['h001f] = 00000000ffffffdb dirty1 = 1, d$m2['h001f] = 00000000ffffffe9 dirty2 = 1, M['h907c] = 0000002e, pass
d$m1['h0000] = 00000000ffffffee dirty1 = 1, d$m2['h0000] = 00000000ffffffe3 dirty2 = 1, M['h9080] = 0000002f, pass
d$m1['h0001] = 00000000ffffffee dirty1 = 1, d$m2['h0001] = 00000000ffffffe3 dirty2 = 1, M['h9084] = 00000031, pass
d$m1['h0002] = 00000000ffffffe8 dirty1 = 1, d$m2['h0002] = 00000000ffffffee dirty2 = 1, M['h9088] = ffffffce, pass
d$m1['h0003] = 00000000ffffffe9 dirty1 = 1, d$m2['h0003] = 00000000ffffffef dirty2 = 1, M['h908c] = ffffffce, pass
d$m1['h0004] = 00000000ffffffee dirty1 = 1, d$m2['h0004] = 00000000fffffff0 dirty2 = 1, M['h9090] = ffffffd1, pass
d$m1['h0005] = 00000000ffffffee dirty1 = 1, d$m2['h0005] = 00000000fffffffe dirty2 = 1, M['h9094] = ffffffd1, pass
d$m1['h0006] = 0000000000000000 dirty1 = 1, d$m2['h0006] = 00000000ffffffee dirty2 = 1, M['h9098] = ffffffd2, pass
d$m1['h0007] = 0000000000000000 dirty1 = 1, d$m2['h0007] = 00000000ffffffef dirty2 = 1, M['h909c] = ffffffe2, pass
d$m1['h0008] = 0000000000000000 dirty1 = 1, d$m2['h0008] = 00000000fffffff0 dirty2 = 1, M['h90a0] = ffffffe9, pass
d$m1['h0009] = 0000000000000003 dirty1 = 1, d$m2['h0009] = 00000000fffffffe dirty2 = 1, M['h90a4] = ffffffea, pass
d$m1['h000a] = 0000000000000009 dirty1 = 1, d$m2['h000a] = 0000000000000000 dirty2 = 1, M['h90a8] = ffffffeb, pass
d$m1['h000b] = 000000000000000f dirty1 = 1, d$m2['h000b] = 0000000000000000 dirty2 = 1, M['h90ac] = ffffffed, pass
d$m1['h000c] = 0000000000000013 dirty1 = 1, d$m2['h000c] = 0000000000000000 dirty2 = 1, M['h90b0] = ffffffef, pass
d$m1['h000d] = 0000000000000016 dirty1 = 1, d$m2['h000d] = 0000000000000003 dirty2 = 1, M['h90b4] = fffffff3, pass
d$m1['h000e] = 0000000000000017 dirty1 = 1, d$m2['h000e] = 0000000000000009 dirty2 = 1, M['h90b8] = fffffff7, pass
d$m1['h000f] = 0000000000000017 dirty1 = 1, d$m2['h000f] = 000000000000000f dirty2 = 1, M['h90bc] = fffffffa, pass
d$m1['h0010] = 0000000000000013 dirty1 = 1, d$m2['h0010] = 0000000000000023 dirty2 = 1, M['h90c0] = fffffffa, pass
d$m1['h0011] = 0000000000000016 dirty1 = 1, d$m2['h0011] = 000000000000002e dirty2 = 1, M['h90c4] = fffffffd, pass
d$m1['h0012] = 0000000000000017 dirty1 = 1, d$m2['h0012] = 000000000000017c dirty2 = 1, M['h90c8] = fffffffe, pass
d$m1['h0013] = 0000000200000094 dirty1 = 0, d$m2['h0013] = 0000000000000017 dirty2 = 1, M['h90cc] = ffffffff, pass
d$m1['h0014] = 0000001d00000002 dirty1 = 0, d$m2['h0014] = 0000000000000023 dirty2 = 1, M['h90d0] = 00000000, pass
d$m1['h0015] = xxxxxxxx0000002e dirty1 = 0, d$m2['h0015] = 00000000ffffffcf dirty2 = 1, M['h90d4] = xxxxxxxx, pass
d$m1['h0016] = 00000000ffffffd2 dirty1 = 1, d$m2['h0016] = 0000000000009000 dirty2 = 0, M['h90d8] = xxxxxxxx, pass
d$m1['h0017] = 00000000ffffffd2 dirty1 = 1, d$m2['h0017] = 0000000000000000 dirty2 = 0, M['h90dc] = xxxxxxxx, pass
d$m1['h0018] = 00000000ffffffd4 dirty1 = 1, d$m2['h0018] = 0000000000000000 dirty2 = 0, M['h90e0] = xxxxxxxx, pass
d$m1['h0019] = 0000000c00000000 dirty1 = 0, d$m2['h0019] = 00000000ffffffd5 dirty2 = 1, M['h90e4] = xxxxxxxx, pass
d$m1['h001a] = 00000000ffffffd6 dirty1 = 1, d$m2['h001a] = 000000000000000c dirty2 = 0, M['h90e8] = xxxxxxxx, pass
d$m1['h001b] = 00000000ffffffdb dirty1 = 1, d$m2['h001b] = xxxxxxxx00000000 dirty2 = 0, M['h90ec] = xxxxxxxx, pass
d$m1['h001c] = 00000000ffffffd4 dirty1 = 1, d$m2['h001c] = 00000000ffffffe3 dirty2 = 1, M['h90f0] = xxxxxxxx, pass
d$m1['h001d] = 00000000ffffffd5 dirty1 = 1, d$m2['h001d] = 00000000ffffffe3 dirty2 = 1, M['h90f4] = xxxxxxxx, pass
d$m1['h001e] = 00000000ffffffd6 dirty1 = 1, d$m2['h001e] = 00000000ffffffe8 dirty2 = 1, M['h90f8] = xxxxxxxx, pass
d$m1['h001f] = 00000000ffffffdb dirty1 = 1, d$m2['h001f] = 00000000ffffffe9 dirty2 = 1, M['h90fc] = xxxxxxxx, pass
d$m1['h0000] = 00000000ffffffee dirty1 = 1, d$m2['h0000] = 00000000ffffffe3 dirty2 = 1, M['h9100] = xxxxxxxx, pass
d$m1['h0001] = 00000000ffffffee dirty1 = 1, d$m2['h0001] = 00000000ffffffe3 dirty2 = 1, M['h9104] = xxxxxxxx, pass
d$m1['h0002] = 00000000ffffffe8 dirty1 = 1, d$m2['h0002] = 00000000ffffffee dirty2 = 1, M['h9108] = xxxxxxxx, pass
d$m1['h0003] = 00000000ffffffe9 dirty1 = 1, d$m2['h0003] = 00000000ffffffef dirty2 = 1, M['h910c] = xxxxxxxx, pass
d$m1['h0004] = 00000000ffffffee dirty1 = 1, d$m2['h0004] = 00000000fffffff0 dirty2 = 1, M['h9110] = xxxxxxxx, pass
d$m1['h0005] = 00000000ffffffee dirty1 = 1, d$m2['h0005] = 00000000fffffffe dirty2 = 1, M['h9114] = xxxxxxxx, pass
d$m1['h0006] = 0000000000000000 dirty1 = 1, d$m2['h0006] = 00000000ffffffee dirty2 = 1, M['h9118] = xxxxxxxx, pass
d$m1['h0007] = 0000000000000000 dirty1 = 1, d$m2['h0007] = 00000000ffffffef dirty2 = 1, M['h911c] = xxxxxxxx, pass
d$m1['h0008] = 0000000000000000 dirty1 = 1, d$m2['h0008] = 00000000fffffff0 dirty2 = 1, M['h9120] = xxxxxxxx, pass
d$m1['h0009] = 0000000000000003 dirty1 = 1, d$m2['h0009] = 00000000fffffffe dirty2 = 1, M['h9124] = xxxxxxxx, pass
d$m1['h000a] = 0000000000000009 dirty1 = 1, d$m2['h000a] = 0000000000000000 dirty2 = 1, M['h9128] = xxxxxxxx, pass
d$m1['h000b] = 000000000000000f dirty1 = 1, d$m2['h000b] = 0000000000000000 dirty2 = 1, M['h912c] = xxxxxxxx, pass
d$m1['h000c] = 0000000000000013 dirty1 = 1, d$m2['h000c] = 0000000000000000 dirty2 = 1, M['h9130] = xxxxxxxx, pass
d$m1['h000d] = 0000000000000016 dirty1 = 1, d$m2['h000d] = 0000000000000003 dirty2 = 1, M['h9134] = xxxxxxxx, pass
d$m1['h000e] = 0000000000000017 dirty1 = 1, d$m2['h000e] = 0000000000000009 dirty2 = 1, M['h9138] = xxxxxxxx, pass
d$m1['h000f] = 0000000000000017 dirty1 = 1, d$m2['h000f] = 000000000000000f dirty2 = 1, M['h913c] = xxxxxxxx, pass
d$m1['h0010] = 0000000000000013 dirty1 = 1, d$m2['h0010] = 0000000000000023 dirty2 = 1, M['h9140] = xxxxxxxx, pass
d$m1['h0011] = 0000000000000016 dirty1 = 1, d$m2['h0011] = 000000000000002e dirty2 = 1, M['h9144] = xxxxxxxx, pass
****************************
**                        **
**  Waku Waku !!          **
**                        **
**  Simulation PASS !!    **
**                        **
****************************
$finish called from file "top_tb.sv", line 117.
$finish at simulation time             25117500
           V C S   S i m u l a t i o n   R e p o r t 
Time: 251175000 ps
CPU Time:      1.480 seconds;       Data structure size:   0.3Mb
Sat Dec 21 15:50:16 2024
CPU time: 1.167 seconds to compile + .799 seconds to elab + .781 seconds to link + 1.570 seconds in simulation
