RV32I/cpu_cache/transcript
# Compile of Adder.v was successful.
# Compile of ALU.v was successful.
# Compile of control_E.v was successful.
# Compile of control_M.v was successful.
# Compile of control_W.v was successful.
# Compile of Controller.v was successful.
# Compile of CPU.v was successful.
# Compile of decoder.v was successful.
# Compile of Imme_Ext.v was successful.
# Compile of JB_Unit.v was successful.
# Compile of LD_Filter.v was successful.
# Compile of Mux.v was successful.
# Compile of Mux3.v was successful.
# Compile of Reg_D.v was successful.
# Compile of Reg_E.v was successful.
# Compile of Reg_M.v was successful.
# Compile of Reg_PC.v was successful.
# Compile of Reg_W.v was successful.
# Compile of RegFile.v was successful.
# Compile of SRAM.v was successful.
# Compile of Top.v was successful.
# Compile of top_tb.sv was successful.
# Compile of Data_mem.v was successful.
# Compile of dcache.v was successful.
# 24 compiles, 0 failed with no errors.
vsim -onfinish stop -gui work.top_tb +notimingchecks
# vsim -onfinish stop -gui work.top_tb "+notimingchecks" 
# Start time: 20:23:49 on Dec 07,2024
# Loading sv_std.std
# Loading work.top_tb
# Loading work.CPU
# Loading work.Top
# Loading work.Reg_PC
# Loading work.Reg_D
# Loading work.decoder
# Loading work.Controller
# Loading work.control_E
# Loading work.control_M
# Loading work.control_W
# Loading work.RegFile
# Loading work.Imme_Ext
# Loading work.Mux
# Loading work.Reg_E
# Loading work.Mux3
# Loading work.ALU
# Loading work.JB_Unit
# Loading work.Reg_M
# Loading work.Reg_W
# Loading work.LD_Filter
# Loading work.Adder
# Loading work.SRAM
# Loading work.dcache
# Loading work.Data_mem
# ** Warning: (vsim-PLI-3691) Expected a system task, not a system function '$fscanf'.
#    Time: 0 ps  Iteration: 0  Instance: /top_tb File: D:/SystemC/piyan-cpu/RV32I/cpu_cache/top_tb.sv Line: 66
run -all
# 
# Done
# 
# DM['h9000] = xxxxxxxx, pass
# DM['h9004] = xxxxxxxx, pass
# DM['h9008] = xxxxxxxx, pass
# DM['h900c] = xxxxxxxx, pass
# DM['h9010] = xxxxxxxx, pass
# DM['h9014] = xxxxxxxx, pass
# DM['h9018] = xxxxxxxx, pass
# DM['h901c] = xxxxxxxx, pass
# DM['h9020] = xxxxxxxx, pass
# DM['h9024] = xxxxxxxx, pass
# DM['h9028] = xxxxxxxx, pass
# DM['h902c] = xxxxxxxx, pass
# DM['h9030] = xxxxxxxx, pass
# DM['h9034] = xxxxxxxx, pass
# DM['h9038] = xxxxxxxx, pass
# DM['h903c] = xxxxxxxx, pass
# DM['h9040] = xxxxxxxx, pass
# DM['h9044] = xxxxxxxx, pass
# DM['h9048] = xxxxxxxx, pass
# DM['h904c] = xxxxxxxx, pass
# DM['h9050] = xxxxxxxx, pass
# DM['h9054] = xxxxxxxx, pass
# DM['h9058] = xxxxxxxx, pass
# DM['h905c] = xxxxxxxx, pass
# DM['h9060] = xxxxxxxx, pass
# DM['h9064] = xxxxxxxx, pass
# DM['h9068] = xxxxxxxx, pass
# DM['h906c] = xxxxxxxx, pass
# DM['h9070] = xxxxxxxx, pass
# DM['h9074] = xxxxxxxx, pass
# DM['h9078] = 00000000, expect = 56780000
# DM['h907c] = 00000000, expect = 78000000
# DM['h9080] = 00000000, expect = 00005678
# DM['h9084] = 00000000, expect = 00000078
# DM['h9088] = xxxxxxxx, pass
# DM['h908c] = xxxxxxxx, pass
# DM['h9090] = xxxxxxxx, pass
# DM['h9094] = xxxxxxxx, pass
# DM['h9098] = xxxxxxxx, pass
# DM['h909c] = xxxxxxxx, pass
# DM['h90a0] = xxxxxxxx, pass
# DM['h90a4] = xxxxxxxx, pass
# DM['h90a8] = xxxxxxxx, pass
# DM['h90ac] = xxxxxxxx, pass
# DM['h90b0] = xxxxxxxx, pass
# ****************************
# **                        **
# **  OOPS !!               **
# **                        **
# **  Simulation Failed !!  **
# **                        **
# ****************************
#        Totally has           4 errors
# 
# 
# ** Note: $finish    : D:/SystemC/piyan-cpu/RV32I/cpu_cache/top_tb.sv(106)
#    Time: 6930 ps  Iteration: 2  Instance: /top_tb
# Break in Module top_tb at D:/SystemC/piyan-cpu/RV32I/cpu_cache/top_tb.sv line 106
add wave -position end sim:/top_tb/CPU/Dcache/*
add wave -position 0 sim:/top_tb/CPU/t1/CT/*
run -all
# ****************************
# **                        **
# **  Time Out !!           **
# **                        **
# **  Simulation Failed !!  **
# **                        **
# ****************************
#        Totally has           4 errors
# 
# 
# ** Note: $finish    : D:/SystemC/piyan-cpu/RV32I/cpu_cache/top_tb.sv(156)
#    Time: 30 ns  Iteration: 0  Instance: /top_tb
# Break in Module top_tb at D:/SystemC/piyan-cpu/RV32I/cpu_cache/top_tb.sv line 156
# Compile of Adder.v was successful.
# Compile of ALU.v was successful.
# Compile of control_E.v was successful.
# Compile of control_M.v was successful.
# Compile of control_W.v was successful.
# Compile of Controller.v was successful.
# Compile of CPU.v was successful.
# Compile of decoder.v was successful.
# Compile of Imme_Ext.v was successful.
# Compile of JB_Unit.v was successful.
# Compile of LD_Filter.v was successful.
# Compile of Mux.v was successful.
# Compile of Mux3.v was successful.
# Compile of Reg_D.v was successful.
# Compile of Reg_E.v was successful.
# Compile of Reg_M.v was successful.
# Compile of Reg_PC.v was successful.
# Compile of Reg_W.v was successful.
# Compile of RegFile.v was successful.
# Compile of SRAM.v was successful.
# Compile of Top.v was successful.
# Compile of top_tb.sv was successful.
# Compile of Data_mem.v was successful.
# Compile of dcache.v was successful.
# 24 compiles, 0 failed with no errors.
restart
# ** Note: (vsim-12125) Error and warning message counts have been reset to '0' because of 'restart'.
# Loading work.top_tb
# Loading work.CPU
# Loading work.Top
# Loading work.Reg_PC
# Loading work.Reg_D
# Loading work.decoder
# Loading work.Controller
# Loading work.control_E
# Loading work.control_M
# Loading work.control_W
# Loading work.RegFile
# Loading work.Imme_Ext
# Loading work.Mux
# Loading work.Reg_E
# Loading work.Mux3
# Loading work.ALU
# Loading work.JB_Unit
# Loading work.Reg_M
# Loading work.Reg_W
# Loading work.LD_Filter
# Loading work.Adder
# Loading work.SRAM
# Loading work.dcache
# Loading work.Data_mem
# ** Warning: (vsim-PLI-3691) Expected a system task, not a system function '$fscanf'.
#    Time: 0 ps  Iteration: 0  Instance: /top_tb File: D:/SystemC/piyan-cpu/RV32I/cpu_cache/top_tb.sv Line: 66
run -all
# GetModuleFileName: тぃ﹚家舱
# 
# 
# 
# Done
# 
# DM['h9000] = xxxxxxxx, pass
# DM['h9004] = xxxxxxxx, pass
# DM['h9008] = xxxxxxxx, pass
# DM['h900c] = xxxxxxxx, pass
# DM['h9010] = xxxxxxxx, pass
# DM['h9014] = xxxxxxxx, pass
# DM['h9018] = xxxxxxxx, pass
# DM['h901c] = xxxxxxxx, pass
# DM['h9020] = xxxxxxxx, pass
# DM['h9024] = xxxxxxxx, pass
# DM['h9028] = xxxxxxxx, pass
# DM['h902c] = xxxxxxxx, pass
# DM['h9030] = xxxxxxxx, pass
# DM['h9034] = xxxxxxxx, pass
# DM['h9038] = xxxxxxxx, pass
# DM['h903c] = xxxxxxxx, pass
# DM['h9040] = xxxxxxxx, pass
# DM['h9044] = xxxxxxxx, pass
# DM['h9048] = xxxxxxxx, pass
# DM['h904c] = xxxxxxxx, pass
# DM['h9050] = xxxxxxxx, pass
# DM['h9054] = xxxxxxxx, pass
# DM['h9058] = xxxxxxxx, pass
# DM['h905c] = xxxxxxxx, pass
# DM['h9060] = xxxxxxxx, pass
# DM['h9064] = xxxxxxxx, pass
# DM['h9068] = xxxxxxxx, pass
# DM['h906c] = xxxxxxxx, pass
# DM['h9070] = xxxxxxxx, pass
# DM['h9074] = xxxxxxxx, pass
# DM['h9078] = 00000000, expect = 56780000
# DM['h907c] = 00000000, expect = 78000000
# DM['h9080] = 00000000, expect = 00005678
# DM['h9084] = 00000000, expect = 00000078
# DM['h9088] = xxxxxxxx, pass
# DM['h908c] = xxxxxxxx, pass
# DM['h9090] = xxxxxxxx, pass
# DM['h9094] = xxxxxxxx, pass
# DM['h9098] = xxxxxxxx, pass
# DM['h909c] = xxxxxxxx, pass
# DM['h90a0] = xxxxxxxx, pass
# DM['h90a4] = xxxxxxxx, pass
# DM['h90a8] = xxxxxxxx, pass
# DM['h90ac] = xxxxxxxx, pass
# DM['h90b0] = xxxxxxxx, pass
# ****************************
# **                        **
# **  OOPS !!               **
# **                        **
# **  Simulation Failed !!  **
# **                        **
# ****************************
#        Totally has           4 errors
# 
# 
# ** Note: $finish    : D:/SystemC/piyan-cpu/RV32I/cpu_cache/top_tb.sv(106)
#    Time: 6930 ps  Iteration: 2  Instance: /top_tb
# Break in Module top_tb at D:/SystemC/piyan-cpu/RV32I/cpu_cache/top_tb.sv line 106
restart
# ** Note: (vsim-12125) Error and warning message counts have been reset to '0' because of 'restart'.
# ** Warning: (vsim-PLI-3691) Expected a system task, not a system function '$fscanf'.
#    Time: 0 ps  Iteration: 0  Instance: /top_tb File: D:/SystemC/piyan-cpu/RV32I/cpu_cache/top_tb.sv Line: 66
add wave -position end  /top_tb/CPU/Dcache/mem1
run -all
# GetModuleFileName: тぃ﹚家舱
# 
# 
# 
# Done
# 
# DM['h9000] = xxxxxxxx, pass
# DM['h9004] = xxxxxxxx, pass
# DM['h9008] = xxxxxxxx, pass
# DM['h900c] = xxxxxxxx, pass
# DM['h9010] = xxxxxxxx, pass
# DM['h9014] = xxxxxxxx, pass
# DM['h9018] = xxxxxxxx, pass
# DM['h901c] = xxxxxxxx, pass
# DM['h9020] = xxxxxxxx, pass
# DM['h9024] = xxxxxxxx, pass
# DM['h9028] = xxxxxxxx, pass
# DM['h902c] = xxxxxxxx, pass
# DM['h9030] = xxxxxxxx, pass
# DM['h9034] = xxxxxxxx, pass
# DM['h9038] = xxxxxxxx, pass
# DM['h903c] = xxxxxxxx, pass
# DM['h9040] = xxxxxxxx, pass
# DM['h9044] = xxxxxxxx, pass
# DM['h9048] = xxxxxxxx, pass
# DM['h904c] = xxxxxxxx, pass
# DM['h9050] = xxxxxxxx, pass
# DM['h9054] = xxxxxxxx, pass
# DM['h9058] = xxxxxxxx, pass
# DM['h905c] = xxxxxxxx, pass
# DM['h9060] = xxxxxxxx, pass
# DM['h9064] = xxxxxxxx, pass
# DM['h9068] = xxxxxxxx, pass
# DM['h906c] = xxxxxxxx, pass
# DM['h9070] = xxxxxxxx, pass
# DM['h9074] = xxxxxxxx, pass
# DM['h9078] = 00000000, expect = 56780000
# DM['h907c] = 00000000, expect = 78000000
# DM['h9080] = 00000000, expect = 00005678
# DM['h9084] = 00000000, expect = 00000078
# DM['h9088] = xxxxxxxx, pass
# DM['h908c] = xxxxxxxx, pass
# DM['h9090] = xxxxxxxx, pass
# DM['h9094] = xxxxxxxx, pass
# DM['h9098] = xxxxxxxx, pass
# DM['h909c] = xxxxxxxx, pass
# DM['h90a0] = xxxxxxxx, pass
# DM['h90a4] = xxxxxxxx, pass
# DM['h90a8] = xxxxxxxx, pass
# DM['h90ac] = xxxxxxxx, pass
# DM['h90b0] = xxxxxxxx, pass
# ****************************
# **                        **
# **  OOPS !!               **
# **                        **
# **  Simulation Failed !!  **
# **                        **
# ****************************
#        Totally has           4 errors
# 
# 
# ** Note: $finish    : D:/SystemC/piyan-cpu/RV32I/cpu_cache/top_tb.sv(106)
#    Time: 6930 ps  Iteration: 2  Instance: /top_tb
# Break in Module top_tb at D:/SystemC/piyan-cpu/RV32I/cpu_cache/top_tb.sv line 106
# Compile of Adder.v was successful.
# Compile of ALU.v was successful.
# Compile of control_E.v was successful.
# Compile of control_M.v was successful.
# Compile of control_W.v was successful.
# Compile of Controller.v was successful.
# Compile of CPU.v was successful.
# Compile of decoder.v was successful.
# Compile of Imme_Ext.v was successful.
# Compile of JB_Unit.v was successful.
# Compile of LD_Filter.v was successful.
# Compile of Mux.v was successful.
# Compile of Mux3.v was successful.
# Compile of Reg_D.v was successful.
# Compile of Reg_E.v was successful.
# Compile of Reg_M.v was successful.
# Compile of Reg_PC.v was successful.
# Compile of Reg_W.v was successful.
# Compile of RegFile.v was successful.
# Compile of SRAM.v was successful.
# Compile of Top.v was successful.
# Compile of top_tb.sv was successful.
# Compile of Data_mem.v was successful.
# Compile of dcache.v was successful.
# 24 compiles, 0 failed with no errors.
restart
# ** Note: (vsim-12125) Error and warning message counts have been reset to '0' because of 'restart'.
# Loading work.top_tb
# Loading work.CPU
# Loading work.Top
# Loading work.Reg_PC
# Loading work.Reg_D
# Loading work.decoder
# Loading work.Controller
# Loading work.control_E
# Loading work.control_M
# Loading work.control_W
# Loading work.RegFile
# Loading work.Imme_Ext
# Loading work.Mux
# Loading work.Reg_E
# Loading work.Mux3
# Loading work.ALU
# Loading work.JB_Unit
# Loading work.Reg_M
# Loading work.Reg_W
# Loading work.LD_Filter
# Loading work.Adder
# Loading work.SRAM
# Loading work.dcache
# Loading work.Data_mem
# ** Warning: (vsim-PLI-3691) Expected a system task, not a system function '$fscanf'.
#    Time: 0 ps  Iteration: 0  Instance: /top_tb File: D:/SystemC/piyan-cpu/RV32I/cpu_cache/top_tb.sv Line: 78
run -all
# GetModuleFileName: тぃ﹚家舱
# 
# 
# 
# Done
# 
# dm1['h0000] = 00000000, dm2['h0000] = 00000000, M['h9000] = xxxxxxxx, expect = fffffff0
# dm1['h0001] = fffffff8, dm2['h0001] = 00000000, M['h9004] = xxxxxxxx, expect = fffffff8
# dm1['h0002] = 00000000, dm2['h0002] = 00000000, M['h9008] = xxxxxxxx, expect = 00000008
# dm1['h0003] = 00000001, dm2['h0003] = 00000000, M['h900c] = xxxxxxxx, expect = 00000001
# dm1['h0004] = 00000000, dm2['h0004] = 00000000, M['h9010] = xxxxxxxx, expect = 00000001
# dm1['h0005] = 78787878, dm2['h0005] = 00000000, M['h9014] = xxxxxxxx, expect = 78787878
# dm1['h0006] = 00000000, dm2['h0006] = 00000000, M['h9018] = xxxxxxxx, expect = 000091a2
# dm1['h0007] = 00000003, dm2['h0007] = 00000000, M['h901c] = xxxxxxxx, expect = 00000003
# dm1['h0008] = 00000000, dm2['h0008] = 00000000, M['h9020] = xxxxxxxx, expect = fefcfefd
# dm1['h0009] = 10305070, dm2['h0009] = 00000000, M['h9024] = xxxxxxxx, expect = 10305070
# dm1['h000a] = xxxxxxxx, dm2['h000a] = 00000000, M['h9028] = xxxxxxxx, expect = cccccccc
# dm1['h000b] = 00000000, dm2['h000b] = 00000000, M['h902c] = xxxxxxxx, expect = ffffffcc
# dm1['h000c] = 00000000, dm2['h000c] = 00000000, M['h9030] = xxxxxxxx, expect = ffffcccc
# dm1['h000d] = 000000xx, dm2['h000d] = 00000000, M['h9034] = xxxxxxxx, expect = 000000cc
# dm1['h000e] = 00000000, dm2['h000e] = 00000000, M['h9038] = xxxxxxxx, expect = 0000cccc
# dm1['h000f] = 00000000, dm2['h000f] = 00000000, M['h903c] = xxxxxxxx, expect = 00000d9d
# dm1['h0010] = 00000004, dm2['h0010] = 00000000, M['h9040] = xxxxxxxx, expect = 00000004
# dm1['h0011] = 00000000, dm2['h0011] = 00000000, M['h9044] = xxxxxxxx, expect = 00000003
# dm1['h0012] = 000001a6, dm2['h0012] = 00000000, M['h9048] = xxxxxxxx, expect = 000001a6
# dm1['h0013] = 00000000, dm2['h0013] = 00000000, M['h904c] = xxxxxxxx, expect = 00000ec6
# dm1['h0014] = 2468b7a8, dm2['h0014] = 00000000, M['h9050] = xxxxxxxx, expect = 2468b7a8
# dm1['h0015] = 00000000, dm2['h0015] = 00000000, M['h9054] = xxxxxxxx, expect = 5dbf9f00
# dm1['h0016] = 00012b38, dm2['h0016] = 00000000, M['h9058] = xxxxxxxx, expect = 00012b38
# dm1['h0017] = 00000000, dm2['h0017] = 00000000, M['h905c] = xxxxxxxx, expect = fa2817b7
# dm1['h0018] = ff000000, dm2['h0018] = 00000000, M['h9060] = xxxxxxxx, expect = ff000000
# dm1['h0019] = 12345678, dm2['h0019] = 00000000, M['h9064] = xxxxxxxx, expect = 12345678
# dm1['h001a] = 00000000, dm2['h001a] = 00000000, M['h9068] = xxxxxxxx, expect = 0000f000
# dm1['h001b] = 00000000, dm2['h001b] = 00000000, M['h906c] = xxxxxxxx, expect = 00000f00
# dm1['h001c] = 000000f0, dm2['h001c] = 00000000, M['h9070] = xxxxxxxx, expect = 000000f0
# dm1['h001d] = 00000000, dm2['h001d] = 00000000, M['h9074] = xxxxxxxx, expect = 0000000f
# dm1['h001e] = 00000000, dm2['h001e] = 00000000, M['h9078] = 00000000, expect = 56780000
# dm1['h001f] = 00000000, dm2['h001f] = 00000000, M['h907c] = 00000000, expect = 78000000
# dm1['h0020] = 00000000, dm2['h0020] = 00000000, M['h9080] = 00000000, expect = 00005678
# dm1['h0021] = 00000000, dm2['h0021] = 00000000, M['h9084] = 00000000, expect = 00000078
# dm1['h0022] = 00000000, dm2['h0022] = 00000000, M['h9088] = xxxxxxxx, expect = 12345678
# dm1['h0023] = 00000000, dm2['h0023] = 00000000, M['h908c] = xxxxxxxx, expect = ce780000
# dm1['h0024] = 00000000, dm2['h0024] = 00000000, M['h9090] = xxxxxxxx, expect = fffff000
# dm1['h0025] = fffff000, dm2['h0025] = 00000000, M['h9094] = xxxxxxxx, expect = fffff000
# dm1['h0026] = 00000000, dm2['h0026] = 00000000, M['h9098] = xxxxxxxx, expect = fffff000
# dm1['h0027] = fffff000, dm2['h0027] = 00000000, M['h909c] = xxxxxxxx, expect = fffff000
# dm1['h0028] = 00000000, dm2['h0028] = 00000000, M['h90a0] = xxxxxxxx, expect = fffff000
# dm1['h0029] = fffff000, dm2['h0029] = 00000000, M['h90a4] = xxxxxxxx, expect = fffff000
# dm1['h002a] = 00000000, dm2['h002a] = 00000000, M['h90a8] = xxxxxxxx, expect = 13579d7c
# dm1['h002b] = 13578000, dm2['h002b] = 00000000, M['h90ac] = xxxxxxxx, expect = 13578000
# dm1['h002c] = 00000000, dm2['h002c] = 00000000, M['h90b0] = xxxxxxxx, expect = fffff004
# ****************************
# **                        **
# **  OOPS !!               **
# **                        **
# **  Simulation Failed !!  **
# **                        **
# ****************************
#        Totally has           x errors
# 
# 
# ** Note: $finish    : D:/SystemC/piyan-cpu/RV32I/cpu_cache/top_tb.sv(123)
#    Time: 6930 ps  Iteration: 2  Instance: /top_tb
# Break in Module top_tb at D:/SystemC/piyan-cpu/RV32I/cpu_cache/top_tb.sv line 123
# Compile of Adder.v was successful.
# Compile of ALU.v was successful.
# Compile of control_E.v was successful.
# Compile of control_M.v was successful.
# Compile of control_W.v was successful.
# Compile of Controller.v was successful.
# Compile of CPU.v was successful.
# Compile of decoder.v was successful.
# Compile of Imme_Ext.v was successful.
# Compile of JB_Unit.v was successful.
# Compile of LD_Filter.v was successful.
# Compile of Mux.v was successful.
# Compile of Mux3.v was successful.
# Compile of Reg_D.v was successful.
# Compile of Reg_E.v was successful.
# Compile of Reg_M.v was successful.
# Compile of Reg_PC.v was successful.
# Compile of Reg_W.v was successful.
# Compile of RegFile.v was successful.
# Compile of SRAM.v was successful.
# Compile of Top.v was successful.
# Compile of top_tb.sv was successful.
# Compile of Data_mem.v was successful.
# Compile of dcache.v was successful.
# 24 compiles, 0 failed with no errors.
restart
# ** Note: (vsim-12125) Error and warning message counts have been reset to '0' because of 'restart'.
# Loading work.top_tb
# Loading work.CPU
# Loading work.Top
# Loading work.Reg_PC
# Loading work.Reg_D
# Loading work.decoder
# Loading work.Controller
# Loading work.control_E
# Loading work.control_M
# Loading work.control_W
# Loading work.RegFile
# Loading work.Imme_Ext
# Loading work.Mux
# Loading work.Reg_E
# Loading work.Mux3
# Loading work.ALU
# Loading work.JB_Unit
# Loading work.Reg_M
# Loading work.Reg_W
# Loading work.LD_Filter
# Loading work.Adder
# Loading work.SRAM
# Loading work.dcache
# Loading work.Data_mem
# ** Warning: (vsim-PLI-3691) Expected a system task, not a system function '$fscanf'.
#    Time: 0 ps  Iteration: 0  Instance: /top_tb File: D:/SystemC/piyan-cpu/RV32I/cpu_cache/top_tb.sv Line: 78
run -all
# GetModuleFileName: тぃ﹚家舱
# 
# 
# 
# Done
# 
# dm1['h0000] = 00000000, dm2['h0000] = 00000000, M['h9000] = xxxxxxxx, expect = fffffff0
# dm1['h0001] = fffffff8, dm2['h0001] = 00000000, M['h9004] = xxxxxxxx, expect = fffffff8
# dm1['h0002] = 00000000, dm2['h0002] = 00000000, M['h9008] = xxxxxxxx, expect = 00000008
# dm1['h0003] = 00000001, dm2['h0003] = 00000000, M['h900c] = xxxxxxxx, expect = 00000001
# dm1['h0004] = 00000000, dm2['h0004] = 00000000, M['h9010] = xxxxxxxx, expect = 00000001
# dm1['h0005] = 78787878, dm2['h0005] = 00000000, M['h9014] = xxxxxxxx, expect = 78787878
# dm1['h0006] = 00000000, dm2['h0006] = 00000000, M['h9018] = xxxxxxxx, expect = 000091a2
# dm1['h0007] = 00000003, dm2['h0007] = 00000000, M['h901c] = xxxxxxxx, expect = 00000003
# dm1['h0008] = 00000000, dm2['h0008] = 00000000, M['h9020] = xxxxxxxx, expect = fefcfefd
# dm1['h0009] = 10305070, dm2['h0009] = 00000000, M['h9024] = xxxxxxxx, expect = 10305070
# dm1['h000a] = xxxxxxxx, dm2['h000a] = 00000000, M['h9028] = xxxxxxxx, expect = cccccccc
# dm1['h000b] = 00000000, dm2['h000b] = 00000000, M['h902c] = xxxxxxxx, expect = ffffffcc
# dm1['h000c] = 00000000, dm2['h000c] = 00000000, M['h9030] = xxxxxxxx, expect = ffffcccc
# dm1['h000d] = 000000xx, dm2['h000d] = 00000000, M['h9034] = xxxxxxxx, expect = 000000cc
# dm1['h000e] = 00000000, dm2['h000e] = 00000000, M['h9038] = xxxxxxxx, expect = 0000cccc
# dm1['h000f] = 00000000, dm2['h000f] = 00000000, M['h903c] = xxxxxxxx, expect = 00000d9d
# dm1['h0010] = 00000004, dm2['h0010] = 00000000, M['h9040] = xxxxxxxx, expect = 00000004
# dm1['h0011] = 00000000, dm2['h0011] = 00000000, M['h9044] = xxxxxxxx, expect = 00000003
# dm1['h0012] = 000001a6, dm2['h0012] = 00000000, M['h9048] = xxxxxxxx, expect = 000001a6
# dm1['h0013] = 00000000, dm2['h0013] = 00000000, M['h904c] = xxxxxxxx, expect = 00000ec6
# dm1['h0014] = 2468b7a8, dm2['h0014] = 00000000, M['h9050] = xxxxxxxx, expect = 2468b7a8
# dm1['h0015] = 00000000, dm2['h0015] = 00000000, M['h9054] = xxxxxxxx, expect = 5dbf9f00
# dm1['h0016] = 00012b38, dm2['h0016] = 00000000, M['h9058] = xxxxxxxx, expect = 00012b38
# dm1['h0017] = 00000000, dm2['h0017] = 00000000, M['h905c] = xxxxxxxx, expect = fa2817b7
# dm1['h0018] = ff000000, dm2['h0018] = 00000000, M['h9060] = xxxxxxxx, expect = ff000000
# dm1['h0019] = 12345678, dm2['h0019] = 00000000, M['h9064] = xxxxxxxx, expect = 12345678
# dm1['h001a] = 00000000, dm2['h001a] = 00000000, M['h9068] = xxxxxxxx, expect = 0000f000
# dm1['h001b] = 00000000, dm2['h001b] = 00000000, M['h906c] = xxxxxxxx, expect = 00000f00
# dm1['h001c] = 000000f0, dm2['h001c] = 00000000, M['h9070] = xxxxxxxx, expect = 000000f0
# dm1['h001d] = 00000000, dm2['h001d] = 00000000, M['h9074] = xxxxxxxx, expect = 0000000f
# dm1['h001e] = 00000000, dm2['h001e] = 00000000, M['h9078] = 00000000, expect = 56780000
# dm1['h001f] = 00000000, dm2['h001f] = 00000000, M['h907c] = 00000000, expect = 78000000
# dm1['h0020] = 00000000, dm2['h0020] = 00000000, M['h9080] = 00000000, expect = 00005678
# dm1['h0021] = 00000000, dm2['h0021] = 00000000, M['h9084] = 00000000, expect = 00000078
# dm1['h0022] = 00000000, dm2['h0022] = 00000000, M['h9088] = xxxxxxxx, expect = 12345678
# dm1['h0023] = 00000000, dm2['h0023] = 00000000, M['h908c] = xxxxxxxx, expect = ce780000
# dm1['h0024] = 00000000, dm2['h0024] = 00000000, M['h9090] = xxxxxxxx, expect = fffff000
# dm1['h0025] = fffff000, dm2['h0025] = 00000000, M['h9094] = xxxxxxxx, expect = fffff000
# dm1['h0026] = 00000000, dm2['h0026] = 00000000, M['h9098] = xxxxxxxx, expect = fffff000
# dm1['h0027] = fffff000, dm2['h0027] = 00000000, M['h909c] = xxxxxxxx, expect = fffff000
# dm1['h0028] = 00000000, dm2['h0028] = 00000000, M['h90a0] = xxxxxxxx, expect = fffff000
# dm1['h0029] = fffff000, dm2['h0029] = 00000000, M['h90a4] = xxxxxxxx, expect = fffff000
# dm1['h002a] = 00000000, dm2['h002a] = 00000000, M['h90a8] = xxxxxxxx, expect = 13579d7c
# dm1['h002b] = 13578000, dm2['h002b] = 00000000, M['h90ac] = xxxxxxxx, expect = 13578000
# dm1['h002c] = 00000000, dm2['h002c] = 00000000, M['h90b0] = xxxxxxxx, expect = fffff004
# ****************************
# **                        **
# **  OOPS !!               **
# **                        **
# **  Simulation Failed !!  **
# **                        **
# ****************************
#        Totally has           x errors
# 
# 
# ** Note: $finish    : D:/SystemC/piyan-cpu/RV32I/cpu_cache/top_tb.sv(130)
#    Time: 6930 ps  Iteration: 2  Instance: /top_tb
# Break in Module top_tb at D:/SystemC/piyan-cpu/RV32I/cpu_cache/top_tb.sv line 130
# Compile of Adder.v was successful.
# Compile of ALU.v was successful.
# Compile of control_E.v was successful.
# Compile of control_M.v was successful.
# Compile of control_W.v was successful.
# Compile of Controller.v was successful.
# Compile of CPU.v was successful.
# Compile of decoder.v was successful.
# Compile of Imme_Ext.v was successful.
# Compile of JB_Unit.v was successful.
# Compile of LD_Filter.v was successful.
# Compile of Mux.v was successful.
# Compile of Mux3.v was successful.
# Compile of Reg_D.v was successful.
# Compile of Reg_E.v was successful.
# Compile of Reg_M.v was successful.
# Compile of Reg_PC.v was successful.
# Compile of Reg_W.v was successful.
# Compile of RegFile.v was successful.
# Compile of SRAM.v was successful.
# Compile of Top.v was successful.
# Compile of top_tb.sv failed with 6 errors.
# Compile of Data_mem.v was successful.
# Compile of dcache.v was successful.
# 24 compiles, 1 failed with 6 errors.
# Compile of Adder.v was successful.
# Compile of ALU.v was successful.
# Compile of control_E.v was successful.
# Compile of control_M.v was successful.
# Compile of control_W.v was successful.
# Compile of Controller.v was successful.
# Compile of CPU.v was successful.
# Compile of decoder.v was successful.
# Compile of Imme_Ext.v was successful.
# Compile of JB_Unit.v was successful.
# Compile of LD_Filter.v was successful.
# Compile of Mux.v was successful.
# Compile of Mux3.v was successful.
# Compile of Reg_D.v was successful.
# Compile of Reg_E.v was successful.
# Compile of Reg_M.v was successful.
# Compile of Reg_PC.v was successful.
# Compile of Reg_W.v was successful.
# Compile of RegFile.v was successful.
# Compile of SRAM.v was successful.
# Compile of Top.v was successful.
# Compile of top_tb.sv was successful.
# Compile of Data_mem.v was successful.
# Compile of dcache.v was successful.
# 24 compiles, 0 failed with no errors.
# Compile of Adder.v was successful.
# Compile of ALU.v was successful.
# Compile of control_E.v was successful.
# Compile of control_M.v was successful.
# Compile of control_W.v was successful.
# Compile of Controller.v was successful.
# Compile of CPU.v was successful.
# Compile of decoder.v was successful.
# Compile of Imme_Ext.v was successful.
# Compile of JB_Unit.v was successful.
# Compile of LD_Filter.v was successful.
# Compile of Mux.v was successful.
# Compile of Mux3.v was successful.
# Compile of Reg_D.v was successful.
# Compile of Reg_E.v was successful.
# Compile of Reg_M.v was successful.
# Compile of Reg_PC.v was successful.
# Compile of Reg_W.v was successful.
# Compile of RegFile.v was successful.
# Compile of SRAM.v was successful.
# Compile of Top.v was successful.
# Compile of top_tb.sv was successful.
# Compile of Data_mem.v was successful.
# Compile of dcache.v was successful.
# 24 compiles, 0 failed with no errors.
restart
# ** Note: (vsim-12125) Error and warning message counts have been reset to '0' because of 'restart'.
# Loading work.top_tb
# Loading work.CPU
# Loading work.Top
# Loading work.Reg_PC
# Loading work.Reg_D
# Loading work.decoder
# Loading work.Controller
# Loading work.control_E
# Loading work.control_M
# Loading work.control_W
# Loading work.RegFile
# Loading work.Imme_Ext
# Loading work.Mux
# Loading work.Reg_E
# Loading work.Mux3
# Loading work.ALU
# Loading work.JB_Unit
# Loading work.Reg_M
# Loading work.Reg_W
# Loading work.LD_Filter
# Loading work.Adder
# Loading work.SRAM
# Loading work.dcache
# Loading work.Data_mem
# ** Warning: (vsim-PLI-3691) Expected a system task, not a system function '$fscanf'.
#    Time: 0 ps  Iteration: 0  Instance: /top_tb File: D:/SystemC/piyan-cpu/RV32I/cpu_cache/top_tb.sv Line: 78
run -all
# GetModuleFileName: тぃ﹚家舱
# 
# 
# 
# Done
# 
# dm1['h0000] = 00000000, dm2['h0000] = 00000000, M['h9000] = xxxxxxxx, expect = fffffff0
# dm1['h0001] = fffffff8, dm2['h0001] = 00000000, M['h9004] = xxxxxxxx, expect = fffffff8
# dm1['h0002] = 00000000, dm2['h0002] = 00000000, M['h9008] = xxxxxxxx, expect = 00000008
# dm1['h0003] = 00000001, dm2['h0003] = 00000000, M['h900c] = xxxxxxxx, expect = 00000001
# dm1['h0004] = 00000000, dm2['h0004] = 00000000, M['h9010] = xxxxxxxx, expect = 00000001
# dm1['h0005] = 78787878, dm2['h0005] = 00000000, M['h9014] = xxxxxxxx, expect = 78787878
# dm1['h0006] = 00000000, dm2['h0006] = 00000000, M['h9018] = xxxxxxxx, expect = 000091a2
# dm1['h0007] = 00000003, dm2['h0007] = 00000000, M['h901c] = xxxxxxxx, expect = 00000003
# dm1['h0008] = 00000000, dm2['h0008] = 00000000, M['h9020] = xxxxxxxx, expect = fefcfefd
# dm1['h0009] = 10305070, dm2['h0009] = 00000000, M['h9024] = xxxxxxxx, expect = 10305070
# dm1['h000a] = xxxxxxxx, dm2['h000a] = 00000000, M['h9028] = xxxxxxxx, expect = cccccccc
