RV32I/cpu_cache/transcript
# Compile of Adder.v was successful.
# Compile of ALU.v was successful.
# Compile of control_E.v was successful.
# Compile of control_M.v was successful.
# Compile of control_W.v was successful.
# Compile of Controller.v was successful.
# Compile of CPU.v was successful.
# Compile of Data_mem.v was successful.
# Compile of dcache.v was successful.
# Compile of decoder.v was successful.
# Compile of Imme_Ext.v was successful.
# Compile of JB_Unit.v was successful.
# Compile of LD_Filter.v was successful.
# Compile of Mux.v was successful.
# Compile of Mux3.v was successful.
# Compile of Reg_D.v was successful.
# Compile of Reg_E.v was successful.
# Compile of Reg_M.v was successful.
# Compile of Reg_PC.v was successful.
# Compile of Reg_W.v was successful.
# Compile of RegFile.v failed with 1 errors.
# Compile of SRAM.v was successful.
# Compile of Top.v was successful.
# Compile of top_tb.sv was successful.
# 24 compiles, 1 failed with 1 error.
# Compile of Adder.v was successful.
# Compile of ALU.v was successful.
# Compile of control_E.v was successful.
# Compile of control_M.v was successful.
# Compile of control_W.v was successful.
# Compile of Controller.v was successful.
# Compile of CPU.v was successful.
# Compile of Data_mem.v was successful.
# Compile of dcache.v was successful.
# Compile of decoder.v was successful.
# Compile of Imme_Ext.v was successful.
# Compile of JB_Unit.v was successful.
# Compile of LD_Filter.v was successful.
# Compile of Mux.v was successful.
# Compile of Mux3.v was successful.
# Compile of Reg_D.v was successful.
# Compile of Reg_E.v was successful.
# Compile of Reg_M.v was successful.
# Compile of Reg_PC.v was successful.
# Compile of Reg_W.v was successful.
# Compile of RegFile.v was successful.
# Compile of SRAM.v was successful.
# Compile of Top.v was successful.
# Compile of top_tb.sv was successful.
# 24 compiles, 0 failed with no errors.
vsim -onfinish stop -gui work.top_tb +notimingchecks
# vsim -onfinish stop -gui work.top_tb "+notimingchecks" 
# Start time: 11:41:21 on Dec 08,2024
# Loading sv_std.std
# Loading work.top_tb
# Loading work.CPU
# Loading work.Top
# Loading work.Reg_PC
# Loading work.Reg_D
# Loading work.decoder
# Loading work.Controller
# Loading work.control_E
# Loading work.control_M
# Loading work.control_W
# Loading work.RegFile
# Loading work.Imme_Ext
# Loading work.Mux
# Loading work.Reg_E
# Loading work.Mux3
# Loading work.ALU
# Loading work.JB_Unit
# Loading work.Reg_M
# Loading work.Reg_W
# Loading work.LD_Filter
# Loading work.Adder
# Loading work.SRAM
# Loading work.dcache
# Loading work.Data_mem
# ** Warning: (vsim-PLI-3691) Expected a system task, not a system function '$fscanf'.
#    Time: 0 ps  Iteration: 0  Instance: /top_tb File: D:/SystemC/piyan-cpu/RV32I/cpu_cache/top_tb.sv Line: 61
# ** Warning: (vsim-2685) [TFMPC] - Too few port connections for 'dm'.  Expected 8, found 7.
#    Time: 0 ps  Iteration: 0  Instance: /top_tb/CPU/dm File: D:/SystemC/piyan-cpu/RV32I/cpu_cache/src/CPU.v Line: 74
# ** Warning: (vsim-3722) D:/SystemC/piyan-cpu/RV32I/cpu_cache/src/CPU.v(74): [TFMPC] - Missing connection for port 'rst'.
run -all
# 
# Done
# 
# dm1['h0000] = 00000003 dirty1 = 0, dm2['h0000] = 00000000 dirty1 = 1, M['h9000] = xxxxxxxx, pass
# dm1['h0001] = 00000022 dirty1 = 0, dm2['h0001] = 00000001 dirty1 = 1, M['h9004] = xxxxxxxx, pass
# dm1['h0002] = 00000001 dirty1 = 1, dm2['h0002] = 00000013 dirty1 = 0, M['h9008] = xxxxxxxx, pass
# dm1['h0003] = 00000003 dirty1 = 1, dm2['h0003] = 0000001d dirty1 = 0, M['h900c] = xxxxxxxx, pass
# dm1['h0004] = 00000000 dirty1 = 1, dm2['h0004] = 00000003 dirty1 = 1, M['h9010] = xxxxxxxx, pass
# dm1['h0005] = 00000001 dirty1 = 1, dm2['h0005] = 00000006 dirty1 = 1, M['h9014] = xxxxxxxx, pass
# dm1['h0006] = 00000001 dirty1 = 1, dm2['h0006] = 00000008 dirty1 = 1, M['h9018] = xxxxxxxx, pass
# dm1['h0007] = 00000003 dirty1 = 1, dm2['h0007] = 0000000a dirty1 = 1, M['h901c] = xxxxxxxx, pass
# dm1['h0008] = 00000003 dirty1 = 1, dm2['h0008] = 0000000a dirty1 = 1, M['h9020] = xxxxxxxx, pass
# dm1['h0009] = 00000006 dirty1 = 1, dm2['h0009] = 0000000b dirty1 = 1, M['h9024] = xxxxxxxx, pass
# dm1['h000a] = 00000008 dirty1 = 1, dm2['h000a] = 0000000c dirty1 = 1, M['h9028] = xxxxxxxx, pass
# dm1['h000b] = 0000000a dirty1 = 1, dm2['h000b] = 0000000f dirty1 = 1, M['h902c] = xxxxxxxx, pass
# dm1['h000c] = 0000000a dirty1 = 1, dm2['h000c] = 00000010 dirty1 = 1, M['h9030] = xxxxxxxx, pass
# dm1['h000d] = 0000000b dirty1 = 1, dm2['h000d] = 00000012 dirty1 = 1, M['h9034] = xxxxxxxx, pass
# dm1['h000e] = 0000000c dirty1 = 1, dm2['h000e] = 00000012 dirty1 = 1, M['h9038] = xxxxxxxx, pass
# dm1['h000f] = 0000000f dirty1 = 1, dm2['h000f] = 00000017 dirty1 = 1, M['h903c] = xxxxxxxx, pass
# dm1['h0010] = 00000010 dirty1 = 1, dm2['h0010] = 00000017 dirty1 = 1, M['h9040] = xxxxxxxx, pass
# dm1['h0011] = 00000012 dirty1 = 1, dm2['h0011] = 00000017 dirty1 = 1, M['h9044] = xxxxxxxx, pass
# dm1['h0012] = 00000012 dirty1 = 1, dm2['h0012] = 00000018 dirty1 = 1, M['h9048] = xxxxxxxx, pass
# dm1['h0013] = 00000017 dirty1 = 1, dm2['h0013] = 0000001b dirty1 = 1, M['h904c] = xxxxxxxx, pass
# dm1['h0014] = 00000017 dirty1 = 1, dm2['h0014] = 0000001e dirty1 = 1, M['h9050] = xxxxxxxx, pass
# dm1['h0015] = 00000017 dirty1 = 1, dm2['h0015] = 00000025 dirty1 = 1, M['h9054] = xxxxxxxx, pass
# dm1['h0016] = 00000018 dirty1 = 1, dm2['h0016] = 00000025 dirty1 = 1, M['h9058] = xxxxxxxx, pass
# dm1['h0017] = 0000001b dirty1 = 1, dm2['h0017] = 00000026 dirty1 = 1, M['h905c] = xxxxxxxx, pass
# dm1['h0018] = 0000001e dirty1 = 1, dm2['h0018] = 00000027 dirty1 = 1, M['h9060] = xxxxxxxx, pass
# dm1['h0019] = 00000025 dirty1 = 1, dm2['h0019] = 00000028 dirty1 = 1, M['h9064] = xxxxxxxx, pass
# dm1['h001a] = 00000025 dirty1 = 1, dm2['h001a] = 00000028 dirty1 = 1, M['h9068] = xxxxxxxx, pass
# dm1['h001b] = 00000026 dirty1 = 1, dm2['h001b] = 00000029 dirty1 = 1, M['h906c] = xxxxxxxx, pass
# dm1['h001c] = 00000027 dirty1 = 1, dm2['h001c] = 0000002b dirty1 = 1, M['h9070] = xxxxxxxx, pass
# dm1['h001d] = 00000028 dirty1 = 1, dm2['h001d] = 0000002d dirty1 = 1, M['h9074] = xxxxxxxx, pass
# dm1['h001e] = 00000028 dirty1 = 1, dm2['h001e] = 0000002d dirty1 = 1, M['h9078] = xxxxxxxx, pass
# dm1['h001f] = 00000029 dirty1 = 1, dm2['h001f] = 0000002e dirty1 = 1, M['h907c] = xxxxxxxx, pass
# dm1['h0020] = 0000002b dirty1 = 1, dm2['h0020] = 0000002f dirty1 = 1, M['h9080] = xxxxxxxx, pass
# dm1['h0021] = 0000002d dirty1 = 1, dm2['h0021] = 00000031 dirty1 = 1, M['h9084] = xxxxxxxx, pass
# dm1['h0022] = 0000002d dirty1 = 1, dm2['h0022] = ffffffce dirty1 = 1, M['h9088] = xxxxxxxx, pass
# dm1['h0023] = 0000002e dirty1 = 1, dm2['h0023] = ffffffce dirty1 = 1, M['h908c] = xxxxxxxx, pass
# dm1['h0024] = 0000002f dirty1 = 1, dm2['h0024] = ffffffd1 dirty1 = 1, M['h9090] = xxxxxxxx, pass
# dm1['h0025] = 00000031 dirty1 = 1, dm2['h0025] = ffffffd1 dirty1 = 1, M['h9094] = xxxxxxxx, pass
# dm1['h0026] = ffffffce dirty1 = 1, dm2['h0026] = ffffffd2 dirty1 = 1, M['h9098] = xxxxxxxx, pass
# dm1['h0027] = ffffffce dirty1 = 1, dm2['h0027] = ffffffe2 dirty1 = 1, M['h909c] = xxxxxxxx, pass
# dm1['h0028] = ffffffd1 dirty1 = 1, dm2['h0028] = ffffffe9 dirty1 = 1, M['h90a0] = xxxxxxxx, pass
# dm1['h0029] = ffffffd1 dirty1 = 1, dm2['h0029] = ffffffea dirty1 = 1, M['h90a4] = xxxxxxxx, pass
# dm1['h002a] = ffffffd2 dirty1 = 1, dm2['h002a] = ffffffeb dirty1 = 1, M['h90a8] = xxxxxxxx, pass
# dm1['h002b] = ffffffe2 dirty1 = 1, dm2['h002b] = ffffffed dirty1 = 1, M['h90ac] = xxxxxxxx, pass
# dm1['h002c] = ffffffe9 dirty1 = 1, dm2['h002c] = ffffffef dirty1 = 1, M['h90b0] = xxxxxxxx, pass
# dm1['h002d] = ffffffea dirty1 = 1, dm2['h002d] = fffffff3 dirty1 = 1, M['h90b4] = xxxxxxxx, pass
# dm1['h002e] = ffffffeb dirty1 = 1, dm2['h002e] = fffffff7 dirty1 = 1, M['h90b8] = xxxxxxxx, pass
# dm1['h002f] = ffffffed dirty1 = 1, dm2['h002f] = fffffffa dirty1 = 1, M['h90bc] = xxxxxxxx, pass
# dm1['h0030] = ffffffef dirty1 = 1, dm2['h0030] = fffffffa dirty1 = 1, M['h90c0] = xxxxxxxx, pass
# dm1['h0031] = fffffff3 dirty1 = 1, dm2['h0031] = fffffffd dirty1 = 1, M['h90c4] = xxxxxxxx, pass
# dm1['h0032] = fffffff7 dirty1 = 1, dm2['h0032] = fffffffe dirty1 = 1, M['h90c8] = xxxxxxxx, pass
# dm1['h0033] = fffffffa dirty1 = 1, dm2['h0033] = ffffffff dirty1 = 1, M['h90cc] = xxxxxxxx, pass
# dm1['h0034] = fffffffa dirty1 = 1, dm2['h0034] = 00000000 dirty1 = 1, M['h90d0] = xxxxxxxx, pass
# dm1['h0035] = fffffffd dirty1 = 1, dm2['h0035] = ffffffcf dirty1 = 1, M['h90d4] = xxxxxxxx, pass
# dm1['h0036] = fffffffe dirty1 = 1, dm2['h0036] = ffffffd2 dirty1 = 1, M['h90d8] = xxxxxxxx, pass
# dm1['h0037] = ffffffff dirty1 = 1, dm2['h0037] = ffffffd2 dirty1 = 1, M['h90dc] = xxxxxxxx, pass
# dm1['h0038] = 00000000 dirty1 = 1, dm2['h0038] = ffffffd4 dirty1 = 1, M['h90e0] = xxxxxxxx, pass
# dm1['h0039] = ffffffcf dirty1 = 1, dm2['h0039] = ffffffd5 dirty1 = 1, M['h90e4] = xxxxxxxx, pass
# dm1['h003a] = ffffffd2 dirty1 = 1, dm2['h003a] = ffffffd6 dirty1 = 1, M['h90e8] = xxxxxxxx, pass
# dm1['h003b] = ffffffd2 dirty1 = 1, dm2['h003b] = ffffffdb dirty1 = 1, M['h90ec] = xxxxxxxx, pass
# dm1['h003c] = ffffffd4 dirty1 = 1, dm2['h003c] = ffffffe3 dirty1 = 1, M['h90f0] = xxxxxxxx, pass
# dm1['h003d] = ffffffd5 dirty1 = 1, dm2['h003d] = ffffffe3 dirty1 = 1, M['h90f4] = xxxxxxxx, pass
# dm1['h003e] = ffffffd6 dirty1 = 1, dm2['h003e] = ffffffe8 dirty1 = 1, M['h90f8] = xxxxxxxx, pass
# dm1['h003f] = ffffffdb dirty1 = 1, dm2['h003f] = ffffffe9 dirty1 = 1, M['h90fc] = xxxxxxxx, pass
# dm1['h0040] = ffffffe3 dirty1 = 1, dm2['h0040] = ffffffee dirty1 = 1, M['h9100] = xxxxxxxx, pass
# dm1['h0041] = ffffffe3 dirty1 = 1, dm2['h0041] = ffffffee dirty1 = 1, M['h9104] = xxxxxxxx, pass
# dm1['h0042] = ffffffe8 dirty1 = 1, dm2['h0042] = ffffffee dirty1 = 1, M['h9108] = xxxxxxxx, pass
# dm1['h0043] = ffffffe9 dirty1 = 1, dm2['h0043] = ffffffef dirty1 = 1, M['h910c] = xxxxxxxx, pass
# dm1['h0044] = ffffffee dirty1 = 1, dm2['h0044] = fffffff0 dirty1 = 1, M['h9110] = xxxxxxxx, pass
# dm1['h0045] = ffffffee dirty1 = 1, dm2['h0045] = fffffffe dirty1 = 1, M['h9114] = xxxxxxxx, pass
# dm1['h0046] = ffffffee dirty1 = 1, dm2['h0046] = 00000000 dirty1 = 1, M['h9118] = xxxxxxxx, pass
# dm1['h0047] = ffffffef dirty1 = 1, dm2['h0047] = 00000000 dirty1 = 1, M['h911c] = xxxxxxxx, pass
# dm1['h0048] = fffffff0 dirty1 = 1, dm2['h0048] = 00000000 dirty1 = 1, M['h9120] = xxxxxxxx, pass
# dm1['h0049] = fffffffe dirty1 = 1, dm2['h0049] = 00000003 dirty1 = 1, M['h9124] = xxxxxxxx, pass
# dm1['h004a] = 00000000 dirty1 = 1, dm2['h004a] = 00000009 dirty1 = 1, M['h9128] = xxxxxxxx, pass
# dm1['h004b] = 00000000 dirty1 = 1, dm2['h004b] = 0000000f dirty1 = 1, M['h912c] = xxxxxxxx, pass
# dm1['h004c] = 00000000 dirty1 = 1, dm2['h004c] = 00000013 dirty1 = 1, M['h9130] = xxxxxxxx, pass
# dm1['h004d] = 00000003 dirty1 = 1, dm2['h004d] = 00000016 dirty1 = 1, M['h9134] = xxxxxxxx, pass
# dm1['h004e] = 00000009 dirty1 = 1, dm2['h004e] = 00000017 dirty1 = 1, M['h9138] = xxxxxxxx, pass
# dm1['h004f] = 0000000f dirty1 = 1, dm2['h004f] = 00000017 dirty1 = 1, M['h913c] = xxxxxxxx, pass
# dm1['h0050] = 00000013 dirty1 = 1, dm2['h0050] = 00000023 dirty1 = 1, M['h9140] = xxxxxxxx, pass
# dm1['h0051] = 00000016 dirty1 = 1, dm2['h0051] = 0000002e dirty1 = 1, M['h9144] = xxxxxxxx, pass
# ****************************
# **                        **
# **  Waku Waku !!          **
# **                        **
# **  Simulation PASS !!    **
# **                        **
# ****************************
# ** Note: $finish    : D:/SystemC/piyan-cpu/RV32I/cpu_cache/top_tb.sv(93)
#    Time: 354390 ps  Iteration: 2  Instance: /top_tb
# Break in Module top_tb at D:/SystemC/piyan-cpu/RV32I/cpu_cache/top_tb.sv line 93
add wave -position end sim:/top_tb/CPU/t1/*
add wave -position 0 sim:/top_tb/CPU/Dcache/*
restart
# ** Note: (vsim-12125) Error and warning message counts have been reset to '0' because of 'restart'.
# ** Warning: (vsim-PLI-3691) Expected a system task, not a system function '$fscanf'.
#    Time: 0 ps  Iteration: 0  Instance: /top_tb File: D:/SystemC/piyan-cpu/RV32I/cpu_cache/top_tb.sv Line: 61
# ** Warning: (vsim-2685) [TFMPC] - Too few port connections for 'dm'.  Expected 8, found 7.
#    Time: 0 ps  Iteration: 0  Instance: /top_tb/CPU/dm File: D:/SystemC/piyan-cpu/RV32I/cpu_cache/src/CPU.v Line: 74
# ** Warning: (vsim-3722) D:/SystemC/piyan-cpu/RV32I/cpu_cache/src/CPU.v(74): [TFMPC] - Missing connection for port 'rst'.
run -all
# 
# Done
# 
# dm1['h0000] = 00000003 dirty1 = 0, dm2['h0000] = 00000000 dirty1 = 1, M['h9000] = xxxxxxxx, pass
# dm1['h0001] = 00000022 dirty1 = 0, dm2['h0001] = 00000001 dirty1 = 1, M['h9004] = xxxxxxxx, pass
# dm1['h0002] = 00000001 dirty1 = 1, dm2['h0002] = 00000013 dirty1 = 0, M['h9008] = xxxxxxxx, pass
# dm1['h0003] = 00000003 dirty1 = 1, dm2['h0003] = 0000001d dirty1 = 0, M['h900c] = xxxxxxxx, pass
# dm1['h0004] = 00000000 dirty1 = 1, dm2['h0004] = 00000003 dirty1 = 1, M['h9010] = xxxxxxxx, pass
# dm1['h0005] = 00000001 dirty1 = 1, dm2['h0005] = 00000006 dirty1 = 1, M['h9014] = xxxxxxxx, pass
# dm1['h0006] = 00000001 dirty1 = 1, dm2['h0006] = 00000008 dirty1 = 1, M['h9018] = xxxxxxxx, pass
# dm1['h0007] = 00000003 dirty1 = 1, dm2['h0007] = 0000000a dirty1 = 1, M['h901c] = xxxxxxxx, pass
# dm1['h0008] = 00000003 dirty1 = 1, dm2['h0008] = 0000000a dirty1 = 1, M['h9020] = xxxxxxxx, pass
# dm1['h0009] = 00000006 dirty1 = 1, dm2['h0009] = 0000000b dirty1 = 1, M['h9024] = xxxxxxxx, pass
# dm1['h000a] = 00000008 dirty1 = 1, dm2['h000a] = 0000000c dirty1 = 1, M['h9028] = xxxxxxxx, pass
# dm1['h000b] = 0000000a dirty1 = 1, dm2['h000b] = 0000000f dirty1 = 1, M['h902c] = xxxxxxxx, pass
# dm1['h000c] = 0000000a dirty1 = 1, dm2['h000c] = 00000010 dirty1 = 1, M['h9030] = xxxxxxxx, pass
# dm1['h000d] = 0000000b dirty1 = 1, dm2['h000d] = 00000012 dirty1 = 1, M['h9034] = xxxxxxxx, pass
# dm1['h000e] = 0000000c dirty1 = 1, dm2['h000e] = 00000012 dirty1 = 1, M['h9038] = xxxxxxxx, pass
# dm1['h000f] = 0000000f dirty1 = 1, dm2['h000f] = 00000017 dirty1 = 1, M['h903c] = xxxxxxxx, pass
# dm1['h0010] = 00000010 dirty1 = 1, dm2['h0010] = 00000017 dirty1 = 1, M['h9040] = xxxxxxxx, pass
# dm1['h0011] = 00000012 dirty1 = 1, dm2['h0011] = 00000017 dirty1 = 1, M['h9044] = xxxxxxxx, pass
# dm1['h0012] = 00000012 dirty1 = 1, dm2['h0012] = 00000018 dirty1 = 1, M['h9048] = xxxxxxxx, pass
# dm1['h0013] = 00000017 dirty1 = 1, dm2['h0013] = 0000001b dirty1 = 1, M['h904c] = xxxxxxxx, pass
# dm1['h0014] = 00000017 dirty1 = 1, dm2['h0014] = 0000001e dirty1 = 1, M['h9050] = xxxxxxxx, pass
# dm1['h0015] = 00000017 dirty1 = 1, dm2['h0015] = 00000025 dirty1 = 1, M['h9054] = xxxxxxxx, pass
# dm1['h0016] = 00000018 dirty1 = 1, dm2['h0016] = 00000025 dirty1 = 1, M['h9058] = xxxxxxxx, pass
# dm1['h0017] = 0000001b dirty1 = 1, dm2['h0017] = 00000026 dirty1 = 1, M['h905c] = xxxxxxxx, pass
# dm1['h0018] = 0000001e dirty1 = 1, dm2['h0018] = 00000027 dirty1 = 1, M['h9060] = xxxxxxxx, pass
# dm1['h0019] = 00000025 dirty1 = 1, dm2['h0019] = 00000028 dirty1 = 1, M['h9064] = xxxxxxxx, pass
# dm1['h001a] = 00000025 dirty1 = 1, dm2['h001a] = 00000028 dirty1 = 1, M['h9068] = xxxxxxxx, pass
# dm1['h001b] = 00000026 dirty1 = 1, dm2['h001b] = 00000029 dirty1 = 1, M['h906c] = xxxxxxxx, pass
# dm1['h001c] = 00000027 dirty1 = 1, dm2['h001c] = 0000002b dirty1 = 1, M['h9070] = xxxxxxxx, pass
# dm1['h001d] = 00000028 dirty1 = 1, dm2['h001d] = 0000002d dirty1 = 1, M['h9074] = xxxxxxxx, pass
# dm1['h001e] = 00000028 dirty1 = 1, dm2['h001e] = 0000002d dirty1 = 1, M['h9078] = xxxxxxxx, pass
# dm1['h001f] = 00000029 dirty1 = 1, dm2['h001f] = 0000002e dirty1 = 1, M['h907c] = xxxxxxxx, pass
# dm1['h0020] = 0000002b dirty1 = 1, dm2['h0020] = 0000002f dirty1 = 1, M['h9080] = xxxxxxxx, pass
# dm1['h0021] = 0000002d dirty1 = 1, dm2['h0021] = 00000031 dirty1 = 1, M['h9084] = xxxxxxxx, pass
# dm1['h0022] = 0000002d dirty1 = 1, dm2['h0022] = ffffffce dirty1 = 1, M['h9088] = xxxxxxxx, pass
# dm1['h0023] = 0000002e dirty1 = 1, dm2['h0023] = ffffffce dirty1 = 1, M['h908c] = xxxxxxxx, pass
# dm1['h0024] = 0000002f dirty1 = 1, dm2['h0024] = ffffffd1 dirty1 = 1, M['h9090] = xxxxxxxx, pass
# dm1['h0025] = 00000031 dirty1 = 1, dm2['h0025] = ffffffd1 dirty1 = 1, M['h9094] = xxxxxxxx, pass
# dm1['h0026] = ffffffce dirty1 = 1, dm2['h0026] = ffffffd2 dirty1 = 1, M['h9098] = xxxxxxxx, pass
# dm1['h0027] = ffffffce dirty1 = 1, dm2['h0027] = ffffffe2 dirty1 = 1, M['h909c] = xxxxxxxx, pass
# dm1['h0028] = ffffffd1 dirty1 = 1, dm2['h0028] = ffffffe9 dirty1 = 1, M['h90a0] = xxxxxxxx, pass
# dm1['h0029] = ffffffd1 dirty1 = 1, dm2['h0029] = ffffffea dirty1 = 1, M['h90a4] = xxxxxxxx, pass
# dm1['h002a] = ffffffd2 dirty1 = 1, dm2['h002a] = ffffffeb dirty1 = 1, M['h90a8] = xxxxxxxx, pass
# dm1['h002b] = ffffffe2 dirty1 = 1, dm2['h002b] = ffffffed dirty1 = 1, M['h90ac] = xxxxxxxx, pass
# dm1['h002c] = ffffffe9 dirty1 = 1, dm2['h002c] = ffffffef dirty1 = 1, M['h90b0] = xxxxxxxx, pass
# dm1['h002d] = ffffffea dirty1 = 1, dm2['h002d] = fffffff3 dirty1 = 1, M['h90b4] = xxxxxxxx, pass
# dm1['h002e] = ffffffeb dirty1 = 1, dm2['h002e] = fffffff7 dirty1 = 1, M['h90b8] = xxxxxxxx, pass
# dm1['h002f] = ffffffed dirty1 = 1, dm2['h002f] = fffffffa dirty1 = 1, M['h90bc] = xxxxxxxx, pass
# dm1['h0030] = ffffffef dirty1 = 1, dm2['h0030] = fffffffa dirty1 = 1, M['h90c0] = xxxxxxxx, pass
# dm1['h0031] = fffffff3 dirty1 = 1, dm2['h0031] = fffffffd dirty1 = 1, M['h90c4] = xxxxxxxx, pass
# dm1['h0032] = fffffff7 dirty1 = 1, dm2['h0032] = fffffffe dirty1 = 1, M['h90c8] = xxxxxxxx, pass
# dm1['h0033] = fffffffa dirty1 = 1, dm2['h0033] = ffffffff dirty1 = 1, M['h90cc] = xxxxxxxx, pass
# dm1['h0034] = fffffffa dirty1 = 1, dm2['h0034] = 00000000 dirty1 = 1, M['h90d0] = xxxxxxxx, pass
# dm1['h0035] = fffffffd dirty1 = 1, dm2['h0035] = ffffffcf dirty1 = 1, M['h90d4] = xxxxxxxx, pass
# dm1['h0036] = fffffffe dirty1 = 1, dm2['h0036] = ffffffd2 dirty1 = 1, M['h90d8] = xxxxxxxx, pass
# dm1['h0037] = ffffffff dirty1 = 1, dm2['h0037] = ffffffd2 dirty1 = 1, M['h90dc] = xxxxxxxx, pass
# dm1['h0038] = 00000000 dirty1 = 1, dm2['h0038] = ffffffd4 dirty1 = 1, M['h90e0] = xxxxxxxx, pass
# dm1['h0039] = ffffffcf dirty1 = 1, dm2['h0039] = ffffffd5 dirty1 = 1, M['h90e4] = xxxxxxxx, pass
# dm1['h003a] = ffffffd2 dirty1 = 1, dm2['h003a] = ffffffd6 dirty1 = 1, M['h90e8] = xxxxxxxx, pass
# dm1['h003b] = ffffffd2 dirty1 = 1, dm2['h003b] = ffffffdb dirty1 = 1, M['h90ec] = xxxxxxxx, pass
# dm1['h003c] = ffffffd4 dirty1 = 1, dm2['h003c] = ffffffe3 dirty1 = 1, M['h90f0] = xxxxxxxx, pass
# dm1['h003d] = ffffffd5 dirty1 = 1, dm2['h003d] = ffffffe3 dirty1 = 1, M['h90f4] = xxxxxxxx, pass
# dm1['h003e] = ffffffd6 dirty1 = 1, dm2['h003e] = ffffffe8 dirty1 = 1, M['h90f8] = xxxxxxxx, pass
# dm1['h003f] = ffffffdb dirty1 = 1, dm2['h003f] = ffffffe9 dirty1 = 1, M['h90fc] = xxxxxxxx, pass
# dm1['h0040] = ffffffe3 dirty1 = 1, dm2['h0040] = ffffffee dirty1 = 1, M['h9100] = xxxxxxxx, pass
# dm1['h0041] = ffffffe3 dirty1 = 1, dm2['h0041] = ffffffee dirty1 = 1, M['h9104] = xxxxxxxx, pass
# dm1['h0042] = ffffffe8 dirty1 = 1, dm2['h0042] = ffffffee dirty1 = 1, M['h9108] = xxxxxxxx, pass
# dm1['h0043] = ffffffe9 dirty1 = 1, dm2['h0043] = ffffffef dirty1 = 1, M['h910c] = xxxxxxxx, pass
# dm1['h0044] = ffffffee dirty1 = 1, dm2['h0044] = fffffff0 dirty1 = 1, M['h9110] = xxxxxxxx, pass
# dm1['h0045] = ffffffee dirty1 = 1, dm2['h0045] = fffffffe dirty1 = 1, M['h9114] = xxxxxxxx, pass
# dm1['h0046] = ffffffee dirty1 = 1, dm2['h0046] = 00000000 dirty1 = 1, M['h9118] = xxxxxxxx, pass
# dm1['h0047] = ffffffef dirty1 = 1, dm2['h0047] = 00000000 dirty1 = 1, M['h911c] = xxxxxxxx, pass
# dm1['h0048] = fffffff0 dirty1 = 1, dm2['h0048] = 00000000 dirty1 = 1, M['h9120] = xxxxxxxx, pass
# dm1['h0049] = fffffffe dirty1 = 1, dm2['h0049] = 00000003 dirty1 = 1, M['h9124] = xxxxxxxx, pass
# dm1['h004a] = 00000000 dirty1 = 1, dm2['h004a] = 00000009 dirty1 = 1, M['h9128] = xxxxxxxx, pass
# dm1['h004b] = 00000000 dirty1 = 1, dm2['h004b] = 0000000f dirty1 = 1, M['h912c] = xxxxxxxx, pass
# dm1['h004c] = 00000000 dirty1 = 1, dm2['h004c] = 00000013 dirty1 = 1, M['h9130] = xxxxxxxx, pass
# dm1['h004d] = 00000003 dirty1 = 1, dm2['h004d] = 00000016 dirty1 = 1, M['h9134] = xxxxxxxx, pass
# dm1['h004e] = 00000009 dirty1 = 1, dm2['h004e] = 00000017 dirty1 = 1, M['h9138] = xxxxxxxx, pass
# dm1['h004f] = 0000000f dirty1 = 1, dm2['h004f] = 00000017 dirty1 = 1, M['h913c] = xxxxxxxx, pass
# dm1['h0050] = 00000013 dirty1 = 1, dm2['h0050] = 00000023 dirty1 = 1, M['h9140] = xxxxxxxx, pass
# dm1['h0051] = 00000016 dirty1 = 1, dm2['h0051] = 0000002e dirty1 = 1, M['h9144] = xxxxxxxx, pass
# ****************************
# **                        **
# **  Waku Waku !!          **
# **                        **
# **  Simulation PASS !!    **
# **                        **
# ****************************
# ** Note: $finish    : D:/SystemC/piyan-cpu/RV32I/cpu_cache/top_tb.sv(93)
#    Time: 354390 ps  Iteration: 2  Instance: /top_tb
# Break in Module top_tb at D:/SystemC/piyan-cpu/RV32I/cpu_cache/top_tb.sv line 93
# Compile of Adder.v was successful.
# Compile of ALU.v was successful.
# Compile of control_E.v was successful.
# Compile of control_M.v was successful.
# Compile of control_W.v was successful.
# Compile of Controller.v was successful.
# Compile of CPU.v was successful.
# Compile of Data_mem.v was successful.
# Compile of dcache.v was successful.
# Compile of decoder.v was successful.
# Compile of Imme_Ext.v was successful.
# Compile of JB_Unit.v was successful.
# Compile of LD_Filter.v was successful.
# Compile of Mux.v was successful.
# Compile of Mux3.v was successful.
# Compile of Reg_D.v was successful.
# Compile of Reg_E.v was successful.
# Compile of Reg_M.v was successful.
# Compile of Reg_PC.v was successful.
# Compile of Reg_W.v was successful.
# Compile of RegFile.v was successful.
# Compile of SRAM.v was successful.
# Compile of Top.v was successful.
# Compile of top_tb.sv was successful.
# 24 compiles, 0 failed with no errors.
restart
# ** Note: (vsim-12125) Error and warning message counts have been reset to '0' because of 'restart'.
# Loading work.top_tb
# Loading work.CPU
# Loading work.Top
# Loading work.Reg_PC
# Loading work.Reg_D
# Loading work.decoder
# Loading work.Controller
# Loading work.control_E
# Loading work.control_M
# Loading work.control_W
# Loading work.RegFile
# Loading work.Imme_Ext
# Loading work.Mux
# Loading work.Reg_E
# Loading work.Mux3
# Loading work.ALU
# Loading work.JB_Unit
# Loading work.Reg_M
# Loading work.Reg_W
# Loading work.LD_Filter
# Loading work.Adder
# Loading work.SRAM
# Loading work.dcache
# Loading work.Data_mem
# ** Warning: (vsim-PLI-3691) Expected a system task, not a system function '$fscanf'.
#    Time: 0 ps  Iteration: 0  Instance: /top_tb File: D:/SystemC/piyan-cpu/RV32I/cpu_cache/top_tb.sv Line: 61
# ** Warning: (vsim-2685) [TFMPC] - Too few port connections for 'dm'.  Expected 8, found 7.
#    Time: 0 ps  Iteration: 0  Instance: /top_tb/CPU/dm File: D:/SystemC/piyan-cpu/RV32I/cpu_cache/src/CPU.v Line: 74
# ** Warning: (vsim-3722) D:/SystemC/piyan-cpu/RV32I/cpu_cache/src/CPU.v(74): [TFMPC] - Missing connection for port 'rst'.
# Warning in wave window restart: (vish-4014) No objects found matching '/top_tb/CPU/Dcache/counter'. 
run -all
# GetModuleFileName: тぃ﹚家舱
# 
# 
# 
# Done
# 
# dm1['h0000] = xxxxxxxx dirty1 = 0, dm2['h0000] = 00000003 dirty1 = 1, M['h9000] = xxxxxxxx, expect = 00000000
# dm1['h0001] = 00000003 dirty1 = 0, dm2['h0001] = 00000012 dirty1 = 1, M['h9004] = xxxxxxxx, expect = 00000001
# dm1['h0002] = 00000029 dirty1 = 1, dm2['h0002] = 00000026 dirty1 = 0, M['h9008] = xxxxxxxx, expect = 00000001
# dm1['h0003] = 00000008 dirty1 = 1, dm2['h0003] = ffffffd5 dirty1 = 0, M['h900c] = xxxxxxxx, expect = 00000003
# dm1['h0004] = 00000003 dirty1 = 1, dm2['h0004] = 00000028 dirty1 = 1, M['h9010] = xxxxxxxx, pass
# dm1['h0005] = 00000012 dirty1 = 1, dm2['h0005] = 00000006 dirty1 = 1, M['h9014] = xxxxxxxx, pass
# dm1['h0006] = 00000029 dirty1 = 1, dm2['h0006] = 0000002d dirty1 = 1, M['h9018] = xxxxxxxx, expect = 00000008
# dm1['h0007] = 00000012 dirty1 = 0, dm2['h0007] = 00000001 dirty1 = 1, M['h901c] = xxxxxxxx, expect = 0000000a
